{
  "project_info": {
    "project_number": "555617761166",
    "firebase_url": "https://surveyor-mgm.firebaseio.com",
    "project_id": "surveyor-mgm",
    "storage_bucket": "surveyor-mgm.appspot.com"
  },
  "client": [
    {
      "client_info": {
        "mobilesdk_app_id": "1:555617761166:android:632c41d64270f9ac",
        "android_client_info": {
          "package_name": "com.dosinfotech.surveyor"
        }
      },
      "oauth_client": [
        {
          "client_id": "555617761166-27aql2h725i2sngs1gqvj6lurun9u6gv.apps.googleusercontent.com",
          "client_type": 1,
          "android_info": {
            "package_name": "com.dosinfotech.surveyor",
            "certificate_hash": "848ca450969388e7568e7d535b59d837c76f1cf1"
          }
        },
        {
          "client_id": "555617761166-g1sq8fn3k0trseiqo2k6s0p00e73rs45.apps.googleusercontent.com",
          "client_type": 3
        }
      ],
      "api_key": [
        {
          "current_key": "AIzaSyA2LhCyA50D0huR_I_VBSzruDSg2tL6_bY"
        }
      ],
      "services": {
        "appinvite_service": {
          "other_platform_oauth_client": [
            {
              "client_id": "555617761166-g1sq8fn3k0trseiqo2k6s0p00e73rs45.apps.googleusercontent.com",
              "client_type": 3
            }
          ]
        }
      }
    },
    {
      "client_info": {
        "mobilesdk_app_id": "1:555617761166:android:9a88998add15481db0d6df",
        "android_client_info": {
          "package_name": "com.dosinfotech.surveyor.mgm"
        }
      },
      "oauth_client": [
        {
          "client_id": "555617761166-g1sq8fn3k0trseiqo2k6s0p00e73rs45.apps.googleusercontent.com",
          "client_type": 3
        }
      ],
      "api_key": [
        {
          "current_key": "AIzaSyA2LhCyA50D0huR_I_VBSzruDSg2tL6_bY"
        }
      ],
      "services": {
        "appinvite_service": {
          "other_platform_oauth_client": [
            {
              "client_id": "555617761166-g1sq8fn3k0trseiqo2k6s0p00e73rs45.apps.googleusercontent.com",
              "client_type": 3
            }
          ]
        }
      }
    }
  ],
  "configuration_version": "1"
}